<mxfile host="app.diagrams.net" modified="2020-11-15T01:20:05.541Z" agent="5.0 (Macintosh; Intel Mac OS X 10_15_7) AppleWebKit/537.36 (KHTML, like Gecko) Chrome/86.0.4240.198 Safari/537.36" etag="BrAZQRaauxiETUVrVM74" version="13.9.7" type="gitlab">
  <diagram id="5017i86oI-mc3ognPHbj" name="Page-1">
    <mxGraphModel dx="1963" dy="1822" grid="1" gridSize="10" guides="1" tooltips="1" connect="1" arrows="1" fold="1" page="1" pageScale="1" pageWidth="850" pageHeight="1100" math="0" shadow="0">
      <root>
        <mxCell id="0" />
        <mxCell id="1" parent="0" />
        <mxCell id="JuPh6OvENV3CYypQYius-1" value="IoT" style="ellipse;whiteSpace=wrap;html=1;align=center;newEdgeStyle={&quot;edgeStyle&quot;:&quot;entityRelationEdgeStyle&quot;,&quot;startArrow&quot;:&quot;none&quot;,&quot;endArrow&quot;:&quot;none&quot;,&quot;segment&quot;:10,&quot;curved&quot;:1};treeFolding=1;treeMoving=1;" vertex="1" parent="1">
          <mxGeometry x="390" y="290" width="100" height="40" as="geometry" />
        </mxCell>
        <mxCell id="JuPh6OvENV3CYypQYius-2" value="Device Software" style="whiteSpace=wrap;html=1;rounded=1;arcSize=50;align=center;verticalAlign=middle;strokeWidth=1;autosize=1;spacing=4;treeFolding=1;treeMoving=1;newEdgeStyle={&quot;edgeStyle&quot;:&quot;entityRelationEdgeStyle&quot;,&quot;startArrow&quot;:&quot;none&quot;,&quot;endArrow&quot;:&quot;none&quot;,&quot;segment&quot;:10,&quot;curved&quot;:1};" vertex="1" parent="1">
          <mxGeometry x="790" y="130" width="130" height="30" as="geometry" />
        </mxCell>
        <mxCell id="JuPh6OvENV3CYypQYius-3" value="" style="edgeStyle=entityRelationEdgeStyle;startArrow=none;endArrow=none;segment=10;curved=1;exitX=1;exitY=0;exitDx=0;exitDy=0;" edge="1" target="JuPh6OvENV3CYypQYius-2" parent="1" source="JuPh6OvENV3CYypQYius-1">
          <mxGeometry relative="1" as="geometry">
            <mxPoint x="470" y="240" as="sourcePoint" />
          </mxGeometry>
        </mxCell>
        <mxCell id="JuPh6OvENV3CYypQYius-4" value="&lt;p class=&quot;graf graf--p&quot;&gt;&lt;b&gt;Protocols&lt;/b&gt; : &lt;b&gt;OPC UA &lt;/b&gt;(Open Platform Communications Unified Architectures), &lt;b&gt;DDS&lt;/b&gt; (Data Distributed Services),&amp;nbsp;&lt;/p&gt;&lt;p class=&quot;graf graf--p&quot;&gt;&lt;b&gt;ROS&lt;/b&gt; (Robot Operating System), &lt;b&gt;MQTT&lt;/b&gt;, &lt;b&gt;Modbus&lt;/b&gt; and many more&lt;/p&gt;" style="whiteSpace=wrap;html=1;shape=partialRectangle;top=0;left=0;bottom=1;right=0;points=[[0,1],[1,1]];fillColor=none;align=center;verticalAlign=bottom;routingCenterY=0.5;snapToPoint=1;recursiveResize=0;autosize=1;treeFolding=1;treeMoving=1;newEdgeStyle={&quot;edgeStyle&quot;:&quot;entityRelationEdgeStyle&quot;,&quot;startArrow&quot;:&quot;none&quot;,&quot;endArrow&quot;:&quot;none&quot;,&quot;segment&quot;:10,&quot;curved&quot;:1};" vertex="1" parent="1">
          <mxGeometry x="630" y="370" width="620" height="70" as="geometry" />
        </mxCell>
        <mxCell id="JuPh6OvENV3CYypQYius-5" value="" style="edgeStyle=entityRelationEdgeStyle;startArrow=none;endArrow=none;segment=10;curved=1;exitX=1;exitY=0.5;exitDx=0;exitDy=0;" edge="1" target="JuPh6OvENV3CYypQYius-4" parent="1" source="JuPh6OvENV3CYypQYius-1">
          <mxGeometry relative="1" as="geometry">
            <mxPoint x="510" y="310" as="sourcePoint" />
          </mxGeometry>
        </mxCell>
        <mxCell id="JuPh6OvENV3CYypQYius-8" value="&lt;meta charset=&quot;utf-8&quot;&gt;&lt;figure class=&quot;graf graf--figure&quot;&gt;&lt;img class=&quot;graf-image&quot; src=&quot;https://cdn-images-1.medium.com/max/800/0*wijy5aDLMyM5vtjG.png&quot;&gt;&lt;/figure&gt;" style="text;whiteSpace=wrap;html=1;" vertex="1" parent="1">
          <mxGeometry x="40" y="-260" width="570" height="400" as="geometry" />
        </mxCell>
        <mxCell id="JuPh6OvENV3CYypQYius-9" value="Control Services" style="whiteSpace=wrap;html=1;rounded=1;arcSize=50;align=center;verticalAlign=middle;strokeWidth=1;autosize=1;spacing=4;treeFolding=1;treeMoving=1;newEdgeStyle={&quot;edgeStyle&quot;:&quot;entityRelationEdgeStyle&quot;,&quot;startArrow&quot;:&quot;none&quot;,&quot;endArrow&quot;:&quot;none&quot;,&quot;segment&quot;:10,&quot;curved&quot;:1};" vertex="1" parent="1">
          <mxGeometry x="-10" y="150" width="130" height="30" as="geometry" />
        </mxCell>
        <mxCell id="JuPh6OvENV3CYypQYius-10" value="" style="edgeStyle=entityRelationEdgeStyle;startArrow=none;endArrow=none;segment=10;curved=1;exitX=0;exitY=0;exitDx=0;exitDy=0;" edge="1" target="JuPh6OvENV3CYypQYius-9" parent="1" source="JuPh6OvENV3CYypQYius-1">
          <mxGeometry relative="1" as="geometry">
            <mxPoint x="190" y="240" as="sourcePoint" />
          </mxGeometry>
        </mxCell>
        <mxCell id="JuPh6OvENV3CYypQYius-11" value="Data / Analytics Services" style="whiteSpace=wrap;html=1;rounded=1;arcSize=50;align=center;verticalAlign=middle;strokeWidth=1;autosize=1;spacing=4;treeFolding=1;treeMoving=1;newEdgeStyle={&quot;edgeStyle&quot;:&quot;entityRelationEdgeStyle&quot;,&quot;startArrow&quot;:&quot;none&quot;,&quot;endArrow&quot;:&quot;none&quot;,&quot;segment&quot;:10,&quot;curved&quot;:1};" vertex="1" parent="1">
          <mxGeometry x="355" y="498" width="170" height="30" as="geometry" />
        </mxCell>
        <mxCell id="JuPh6OvENV3CYypQYius-12" value="" style="edgeStyle=entityRelationEdgeStyle;startArrow=none;endArrow=none;segment=10;curved=1;exitX=0.5;exitY=1;exitDx=0;exitDy=0;entryX=0.5;entryY=0;entryDx=0;entryDy=0;" edge="1" target="JuPh6OvENV3CYypQYius-11" parent="1" source="JuPh6OvENV3CYypQYius-1">
          <mxGeometry relative="1" as="geometry">
            <mxPoint x="435" y="330" as="sourcePoint" />
          </mxGeometry>
        </mxCell>
        <mxCell id="JuPh6OvENV3CYypQYius-13" value="&lt;span style=&quot;color: rgb(35 , 47 , 62) ; text-align: left&quot;&gt;&lt;font style=&quot;font-size: 13px&quot;&gt;real-time operating system for microcontrollers&lt;/font&gt;&lt;/span&gt;" style="whiteSpace=wrap;html=1;shape=partialRectangle;top=0;left=0;bottom=1;right=0;points=[[0,1],[1,1]];fillColor=none;align=center;verticalAlign=bottom;routingCenterY=0.5;snapToPoint=1;recursiveResize=0;autosize=1;treeFolding=1;treeMoving=1;newEdgeStyle={&quot;edgeStyle&quot;:&quot;entityRelationEdgeStyle&quot;,&quot;startArrow&quot;:&quot;none&quot;,&quot;endArrow&quot;:&quot;none&quot;,&quot;segment&quot;:10,&quot;curved&quot;:1};strokeColor=#000000;" vertex="1" parent="1">
          <mxGeometry x="970" y="-20" width="370" height="20" as="geometry" />
        </mxCell>
        <mxCell id="JuPh6OvENV3CYypQYius-14" value="" style="edgeStyle=entityRelationEdgeStyle;startArrow=none;endArrow=none;segment=10;curved=1;exitX=0.75;exitY=0;exitDx=0;exitDy=0;" edge="1" target="JuPh6OvENV3CYypQYius-13" parent="1" source="JuPh6OvENV3CYypQYius-2">
          <mxGeometry relative="1" as="geometry">
            <mxPoint x="940" y="150" as="sourcePoint" />
          </mxGeometry>
        </mxCell>
        <mxCell id="JuPh6OvENV3CYypQYius-21" value="&lt;p class=&quot;graf graf--p&quot;&gt;&lt;span class=&quot;markup--strong markup--p-strong&quot;&gt;&lt;font style=&quot;font-size: 13px&quot;&gt;Connect different types of devices with the cloud and each other.&lt;/font&gt;&lt;/span&gt;&lt;/p&gt;" style="whiteSpace=wrap;html=1;shape=partialRectangle;top=0;left=0;bottom=1;right=0;points=[[0,1],[1,1]];fillColor=none;align=center;verticalAlign=bottom;routingCenterY=0.5;snapToPoint=1;recursiveResize=0;autosize=1;treeFolding=1;treeMoving=1;newEdgeStyle={&quot;edgeStyle&quot;:&quot;entityRelationEdgeStyle&quot;,&quot;startArrow&quot;:&quot;none&quot;,&quot;endArrow&quot;:&quot;none&quot;,&quot;segment&quot;:10,&quot;curved&quot;:1};strokeColor=#000000;" vertex="1" parent="1">
          <mxGeometry x="945" y="250" width="400" height="40" as="geometry" />
        </mxCell>
        <mxCell id="JuPh6OvENV3CYypQYius-22" value="" style="edgeStyle=entityRelationEdgeStyle;startArrow=none;endArrow=none;segment=10;curved=1;exitX=0.75;exitY=1;exitDx=0;exitDy=0;" edge="1" target="JuPh6OvENV3CYypQYius-21" parent="1" source="JuPh6OvENV3CYypQYius-2">
          <mxGeometry relative="1" as="geometry">
            <mxPoint x="920" y="220" as="sourcePoint" />
          </mxGeometry>
        </mxCell>
        <mxCell id="JuPh6OvENV3CYypQYius-23" value="" style="group;strokeColor=#000000;" vertex="1" connectable="0" parent="1">
          <mxGeometry x="1338" y="-130" width="670" height="200" as="geometry" />
        </mxCell>
        <mxCell id="JuPh6OvENV3CYypQYius-19" value="" style="group" vertex="1" connectable="0" parent="JuPh6OvENV3CYypQYius-23">
          <mxGeometry x="366" width="304" height="200" as="geometry" />
        </mxCell>
        <mxCell id="JuPh6OvENV3CYypQYius-16" value="" style="aspect=fixed;html=1;points=[];align=center;image;fontSize=12;image=img/lib/azure2/preview/RTOS.svg;strokeColor=#000000;" vertex="1" parent="JuPh6OvENV3CYypQYius-19">
          <mxGeometry y="59.64391691394659" width="68" height="68" as="geometry" />
        </mxCell>
        <mxCell id="JuPh6OvENV3CYypQYius-18" value="&lt;h1&gt;Azure RTOS&lt;/h1&gt;&lt;p&gt;&lt;font style=&quot;font-size: 13px&quot;&gt;Azure RTOS is an embedded development suite that provides &lt;b&gt;reliable, ultra-fast performance&lt;/b&gt; for resource-constrained devices.It supports the most popular &lt;b&gt;32-bit microcontrollers&lt;/b&gt; and embedded development tools&lt;/font&gt;&lt;/p&gt;" style="text;html=1;strokeColor=none;fillColor=none;spacing=5;spacingTop=-20;whiteSpace=wrap;overflow=hidden;rounded=0;" vertex="1" parent="JuPh6OvENV3CYypQYius-19">
          <mxGeometry x="114" width="190" height="200" as="geometry" />
        </mxCell>
        <mxCell id="JuPh6OvENV3CYypQYius-20" value="" style="group" vertex="1" connectable="0" parent="JuPh6OvENV3CYypQYius-23">
          <mxGeometry width="316" height="200" as="geometry" />
        </mxCell>
        <mxCell id="JuPh6OvENV3CYypQYius-15" value="Amazon FreeRTOS" style="outlineConnect=0;fontColor=#232F3E;gradientColor=none;strokeColor=#ffffff;fillColor=#232F3E;dashed=0;verticalLabelPosition=middle;verticalAlign=bottom;align=center;html=1;whiteSpace=wrap;fontSize=10;fontStyle=1;spacing=3;shape=mxgraph.aws4.productIcon;prIcon=mxgraph.aws4.freertos;" vertex="1" parent="JuPh6OvENV3CYypQYius-20">
          <mxGeometry y="50" width="80" height="137.5" as="geometry" />
        </mxCell>
        <mxCell id="JuPh6OvENV3CYypQYius-17" value="&lt;h1&gt;Amazon FreeRTOS&lt;/h1&gt;&lt;p&gt;&lt;span style=&quot;color: rgb(35 , 47 , 62)&quot;&gt;&lt;font style=&quot;font-size: 13px&quot;&gt;FreeRTOS is an open source, &lt;b&gt;real-time operating system&lt;/b&gt; for &lt;b&gt;microcontrollers&lt;/b&gt; that makes &lt;b&gt;small, low-power edge devices&lt;/b&gt; easy to program, &lt;b&gt;deploy, secure, connect, and manage&lt;/b&gt;.&amp;nbsp;&lt;/font&gt;&lt;/span&gt;&lt;br&gt;&lt;/p&gt;" style="text;html=1;strokeColor=none;fillColor=none;spacing=5;spacingTop=-20;whiteSpace=wrap;overflow=hidden;rounded=0;" vertex="1" parent="JuPh6OvENV3CYypQYius-20">
          <mxGeometry x="126" width="190" height="200" as="geometry" />
        </mxCell>
        <mxCell id="JuPh6OvENV3CYypQYius-30" value="" style="group;strokeColor=#000000;" vertex="1" connectable="0" parent="1">
          <mxGeometry x="1338" y="140" width="662" height="250" as="geometry" />
        </mxCell>
        <mxCell id="JuPh6OvENV3CYypQYius-26" value="" style="group" vertex="1" connectable="0" parent="JuPh6OvENV3CYypQYius-30">
          <mxGeometry width="322" height="250" as="geometry" />
        </mxCell>
        <mxCell id="JuPh6OvENV3CYypQYius-24" value="AWS Greengrass" style="outlineConnect=0;fontColor=#232F3E;gradientColor=none;strokeColor=#ffffff;fillColor=#232F3E;dashed=0;verticalLabelPosition=middle;verticalAlign=bottom;align=center;html=1;whiteSpace=wrap;fontSize=10;fontStyle=1;spacing=3;shape=mxgraph.aws4.productIcon;prIcon=mxgraph.aws4.greengrass;" vertex="1" parent="JuPh6OvENV3CYypQYius-26">
          <mxGeometry y="70" width="80" height="110" as="geometry" />
        </mxCell>
        <mxCell id="JuPh6OvENV3CYypQYius-25" value="&lt;h1&gt;AWS IoT Greengrass&lt;/h1&gt;&lt;p style=&quot;font-size: 13px&quot;&gt;&lt;span style=&quot;color: rgb(35 , 47 , 62)&quot;&gt;With AWS IoT Greengrass, connected devices can &lt;b&gt;run AWS Lambda&lt;/b&gt;&lt;/span&gt;&lt;span style=&quot;color: rgb(35 , 47 , 62)&quot;&gt;&lt;b&gt;&amp;nbsp;&lt;/b&gt;functions, &lt;b&gt;Docker containers&lt;/b&gt;, or both, execute predictions based on &lt;b&gt;machine learning models&lt;/b&gt;, keep &lt;b&gt;device data in sync&lt;/b&gt;, employs &lt;b&gt;device shadows&lt;/b&gt; and &lt;b&gt;communicate&lt;/b&gt; with other devices &lt;b&gt;securely&lt;/b&gt; – even when not connected to the Internet.&lt;/span&gt;&lt;br&gt;&lt;/p&gt;" style="text;html=1;strokeColor=none;fillColor=none;spacing=5;spacingTop=-20;whiteSpace=wrap;overflow=hidden;rounded=0;" vertex="1" parent="JuPh6OvENV3CYypQYius-26">
          <mxGeometry x="132" width="190" height="250" as="geometry" />
        </mxCell>
        <mxCell id="JuPh6OvENV3CYypQYius-29" value="" style="group" vertex="1" connectable="0" parent="JuPh6OvENV3CYypQYius-30">
          <mxGeometry x="372" width="290" height="240" as="geometry" />
        </mxCell>
        <mxCell id="JuPh6OvENV3CYypQYius-27" value="" style="aspect=fixed;html=1;points=[];align=center;image;fontSize=12;image=img/lib/azure2/preview/IoT_Edge.svg;strokeColor=#000000;" vertex="1" parent="JuPh6OvENV3CYypQYius-29">
          <mxGeometry y="83" width="68" height="67" as="geometry" />
        </mxCell>
        <mxCell id="JuPh6OvENV3CYypQYius-28" value="&lt;h1&gt;Azure IoT Edge&lt;/h1&gt;&lt;p&gt;&lt;font style=&quot;font-size: 13px&quot;&gt;&lt;br&gt;&lt;/font&gt;&lt;/p&gt;&lt;p&gt;&lt;font style=&quot;font-size: 13px&quot;&gt;Azure IoT Edge is a fully managed service built on &lt;b&gt;Azure IoT Hub&lt;/b&gt;. Deploy your cloud workloads—&lt;b&gt;artificial intelligence, Azure and third-party services&lt;/b&gt;, or your own business logic—to run on Internet of Things (IoT) edge devices &lt;b&gt;via standard containers&lt;/b&gt;.&lt;/font&gt;&lt;/p&gt;" style="text;html=1;strokeColor=none;fillColor=none;spacing=5;spacingTop=-20;whiteSpace=wrap;overflow=hidden;rounded=0;" vertex="1" parent="JuPh6OvENV3CYypQYius-29">
          <mxGeometry x="100" width="190" height="240" as="geometry" />
        </mxCell>
        <mxCell id="JuPh6OvENV3CYypQYius-32" value="" style="shape=image;verticalLabelPosition=bottom;labelBackgroundColor=#ffffff;verticalAlign=top;aspect=fixed;imageAspect=0;image=https://cdn-images-1.medium.com/max/1200/1*P9zDtqSDBfXk4ae3PZGW7g.png;imageBorder=#000000;" vertex="1" parent="1">
          <mxGeometry x="1338" y="420" width="520" height="234" as="geometry" />
        </mxCell>
      </root>
    </mxGraphModel>
  </diagram>
</mxfile>
